test/dump.vcd
$date
	Sun May 14 01:30:45 2023
$end
$version
	Icarus Verilog
$end
$timescale
	1ps
$end
$scope module top_test $end
$scope module u_top_1 $end
$var wire 1 ! ACKD_n $end
$var wire 1 " ACKI_n $end
$var wire 1 # IACK_n $end
$var wire 32 $ IDT [31:0] $end
$var wire 3 % OINT_n [2:0] $end
$var wire 1 & WRITE $end
$var wire 1 ' clk $end
$var wire 1 ( mem_write $end
$var wire 1 ) rst $end
$var wire 2 * result_src [1:0] $end
$var wire 1 + reg_write $end
$var wire 32 , rd2 [31:0] $end
$var wire 1 - pc_src $end
$var wire 3 . imm_src [2:0] $end
$var wire 1 / alu_src $end
$var wire 4 0 alu_ctrl [3:0] $end
$var wire 1 1 ZERO $end
$var wire 2 2 SIZE [1:0] $end
$var wire 1 3 MREQ $end
$var wire 1 4 IS_lui $end
$var wire 1 5 IS_Utype $end
$var wire 32 6 IAD [31:0] $end
$var wire 32 7 DDT [31:0] $end
$var wire 32 8 DAD [31:0] $end
$scope module datapath $end
$var wire 32 9 ReadDDT [31:0] $end
$var wire 1 ' clk $end
$var wire 32 : inst [31:0] $end
$var wire 1 ) rst $end
$var wire 32 ; u_out [31:0] $end
$var wire 32 < srcB [31:0] $end
$var wire 2 = result_src [1:0] $end
$var wire 32 > result [31:0] $end
$var wire 1 + reg_write $end
$var wire 32 ? rd2 [31:0] $end
$var wire 32 @ rd1 [31:0] $end
$var wire 32 A pcplusImm [31:0] $end
$var wire 32 B pcplus4 [31:0] $end
$var wire 1 - pc_src $end
$var wire 32 C pc_next [31:0] $end
$var wire 32 D pc [31:0] $end
$var wire 3 E imm_src [2:0] $end
$var wire 32 F immExt [31:0] $end
$var wire 1 / alu_src $end
$var wire 32 G alu_out [31:0] $end
$var wire 4 H alu_ctrl [3:0] $end
$var wire 1 1 ZERO $end
$var wire 1 4 IS_lui $end
$var wire 1 5 IS_Utype $end
$scope module add4 $end
$var wire 32 I b [31:0] $end
$var wire 32 J out [31:0] $end
$var wire 32 K a [31:0] $end
$upscope $end
$scope module addimm $end
$var wire 32 L out [31:0] $end
$var wire 32 M b [31:0] $end
$var wire 32 N a [31:0] $end
$upscope $end
$scope module alu $end
$var wire 4 O mode [3:0] $end
$var wire 32 P B [31:0] $end
$var wire 32 Q A [31:0] $end
$var reg 32 R X [31:0] $end
$var reg 1 1 ZERO $end
$upscope $end
$scope module extend $end
$var wire 25 S instr [31:7] $end
$var wire 3 T immsrc [2:0] $end
$var reg 32 U immext [31:0] $end
$upscope $end
$scope module mux_result $end
$var wire 32 V A [31:0] $end
$var wire 32 W B [31:0] $end
$var wire 32 X C [31:0] $end
$var wire 2 Y sel [1:0] $end
$var wire 32 Z X [31:0] $end
$var wire 32 [ D [31:0] $end
$upscope $end
$scope module mux_src $end
$var wire 32 \ B [31:0] $end
$var wire 1 / sel $end
$var wire 32 ] X [31:0] $end
$var wire 32 ^ A [31:0] $end
$upscope $end
$scope module pcff $end
$var wire 1 ' clk $end
$var wire 1 ) rst $end
$var wire 32 _ d [31:0] $end
$var reg 32 ` q [31:0] $end
$upscope $end
$scope module pcmux $end
$var wire 32 a A [31:0] $end
$var wire 32 b B [31:0] $end
$var wire 1 - sel $end
$var wire 32 c X [31:0] $end
$upscope $end
$scope module rf $end
$var wire 1 ' clk $end
$var wire 1 d clk_inv $end
$var wire 32 e data_in [31:0] $end
$var wire 5 f rd1_addr [4:0] $end
$var wire 5 g rd2_addr [4:0] $end
$var wire 1 ) reset $end
$var wire 5 h wr_addr [4:0] $end
$var wire 1 i wr_n $end
$var wire 32 j ram_data2_out [31:0] $end
$var wire 32 k ram_data1_out [31:0] $end
$var wire 32 l data2_out [31:0] $end
$var wire 32 m data1_out [31:0] $end
$scope module u_DW_ram_2r_w_s_dff $end
$var wire 1 n a_rst_n $end
$var wire 1 d clk $end
$var wire 1 o cs_n $end
$var wire 32 p data_in [31:0] $end
$var wire 5 q rd1_addr [4:0] $end
$var wire 5 r rd2_addr [4:0] $end
$var wire 1 ) rst_n $end
$var wire 5 s wr_addr [4:0] $end
$var wire 1 i wr_n $end
$var wire 1024 t mem_mux2 [1023:0] $end
$var wire 1024 u mem_mux1 [1023:0] $end
$var wire 32 v data_rd2_out [31:0] $end
$var wire 32 w data_rd1_out [31:0] $end
$var reg 1024 x mem [1023:0] $end
$var reg 1024 y next_mem [1023:0] $end
$scope begin clk_monitor $end
$upscope $end
$scope begin parameter_check $end
$var integer 32 z param_err_flg [31:0] $end
$upscope $end
$scope begin registers $end
$var integer 32 { i [31:0] $end
$var integer 32 | j [31:0] $end
$upscope $end
$upscope $end
$upscope $end
$scope module u_alu $end
$var wire 32 } imm20 [31:0] $end
$var wire 32 ~ pc [31:0] $end
$var wire 1 4 IS_lui $end
$var wire 1 5 IS_Utype $end
$var reg 32 !" result [31:0] $end
$upscope $end
$upscope $end
$scope module dec $end
$var wire 1 1 ZERO $end
$var wire 32 "" inst [31:0] $end
$var wire 1 & mem_write $end
$var wire 1 - pc_src $end
$var wire 2 #" result_src [1:0] $end
$var wire 1 + reg_write $end
$var wire 1 3 mreq $end
$var wire 1 $" is_branch $end
$var wire 3 %" imm_src [2:0] $end
$var wire 2 &" byte_size [1:0] $end
$var wire 1 / alu_src $end
$var wire 2 '" alu_op [1:0] $end
$var wire 4 (" alu_ctrl [3:0] $end
$var wire 1 )" Jump $end
$var wire 1 4 IS_lui $end
$var wire 1 5 IS_Utype $end
$scope module asig $end
$var wire 7 *" opcode [6:0] $end
$var reg 1 5 IS_Utype $end
$var reg 1 4 IS_lui $end
$var reg 1 )" Jump $end
$var reg 2 +" alu_op [1:0] $end
$var reg 1 / alu_src $end
$var reg 3 ," imm_src [2:0] $end
$var reg 1 $" is_branch $end
$var reg 1 -" mem_write $end
$var reg 1 3 mreq $end
$var reg 1 + reg_write $end
$var reg 2 ." result_src [1:0] $end
$upscope $end
$scope module idec $end
$var wire 2 /" alu_op [1:0] $end
$var wire 3 0" funct3 [2:0] $end
$var wire 1 1" funct7b5 $end
$var reg 4 2" alu_ctrl [3:0] $end
$var reg 2 3" byte_size [1:0] $end
$upscope $end
$upscope $end
$upscope $end
$upscope $end
$enddefinitions $end
#0
$dumpvars
bx 3"
bx 2"
x1"
bx 0"
bx /"
bx ."
x-"
bx ,"
bx +"
bx *"
x)"
bx ("
bx '"
bx &"
bx %"
x$"
bx #"
bx ""
bx !"
bx ~
bx }
bx |
bx {
b0 z
bx y
bx x
bx w
bx v
bx u
bx t
bx s
bx r
bx q
bx p
0o
1n
bx m
bx l
bx k
bx j
xi
bx h
bx g
bx f
bx e
0d
bx c
bx b
bx a
bx `
bx _
bx ^
bx ]
bx \
bx [
bx Z
bx Y
bx X
bx W
bx V
bx U
bx T
bx S
bx R
bx Q
bx P
bx O
bx N
bx M
bx L
bx K
bx J
b100 I
bx H
bx G
bx F
bx E
bx D
bx C
bx B
bx A
bx @
bx ?
bx >
bx =
bx <
bx ;
bx :
bx 9
bx 8
bx 7
bx 6
x5
x4
x3
bx 2
x1
bx 0
x/
bx .
x-
bx ,
x+
bx *
1)
z(
1'
x&
b111 %
bx $
z#
1"
1!
$end
#1000
b10000000000000100 B
b10000000000000100 J
b10000000000000100 X
b10000000000000100 a
b10000000000000000 6
b10000000000000000 D
b10000000000000000 K
b10000000000000000 N
b10000000000000000 `
b10000000000000000 ~
b0 x
0n
0)
#5000
b1000000000110000000000000000 >
b1000000000110000000000000000 Z
b1000000000110000000000000000 e
b1000000000110000000000000000 p
b10000000000000100 C
b10000000000000100 _
b10000000000000100 c
b1000000000110000000000000000 <
b1000000000110000000000000000 P
b1000000000110000000000000000 ]
b1000000000110000000000000000 ;
b1000000000110000000000000000 [
b1000000000110000000000000000 !"
0-
0i
b1000000001000000000000000000 A
b1000000001000000000000000000 L
b1000000001000000000000000000 b
b1000000000110000000000000000 F
b1000000000110000000000000000 M
b1000000000110000000000000000 U
b1000000000110000000000000000 \
b1000000000110000000000000000 }
bz 7
bz 9
bz W
03
14
15
0)"
1+
b100 .
b100 E
b100 T
b100 %"
b100 ,"
1/
0&
0-"
b11 *
b11 =
b11 Y
b11 #"
b11 ."
0$"
b0 @
b0 Q
b0 m
b0 k
b0 w
b0 j
b0 v
b0 ,
b0 ?
b0 ^
b0 l
b100000000011000000010 S
b0 u
b110 f
b110 q
b0 t
b0 g
b0 r
b10 h
b10 s
b110111 *"
b0 0"
01"
1d
0"
b1000000000110000000100110111 $
b1000000000110000000100110111 :
b1000000000110000000100110111 ""
0'
#10000
b1011111 |
b100000 {
b10000000001100000000000000000000000000000000000000000000000000000000000000000000000000000000 y
0d
1'
#11000
1n
1)
#15000
1d
0'
bz 7
bz 9
bz W
#20000
b10000000000001000 C
b10000000000001000 _
b10000000000001000 c
b10000000001100000000000000000000000000000000000000000000000000000000000000000000000000000000 t
b10000000001100000000000000000000000000000000000000000000000000000000000000000000000000000000 x
b1000000001000000000000000100 A
b1000000001000000000000000100 L
b1000000001000000000000000100 b
b10000000000001000 B
b10000000000001000 J
b10000000000001000 X
b10000000000001000 a
b10000000000000100 6
b10000000000000100 D
b10000000000000100 K
b10000000000000100 N
b10000000000000100 `
b10000000000000100 ~
b1011111 |
b100000 {
b10000000001100000000000000000000000000000000000000000000000000000000000000000000000000000000 y
0d
1'
#25000
b10000000000010100 C
b10000000000010100 _
b10000000000010100 c
b10000000000001000 >
b10000000000001000 Z
b10000000000001000 e
b10000000000001000 p
b0x0000 <
b0x0000 P
b0x0000 ]
1-
b10000000000010100 A
b10000000000010100 L
b10000000000010100 b
b10000 F
b10000 M
b10000 U
b10000 \
b10000 }
1)"
b11 .
b11 E
b11 T
b11 %"
b11 ,"
x/
b10 *
b10 =
b10 Y
b10 #"
b10 ."
1d
b100000000000000001 S
b10000000001100000000000000000000000000000000000000000000000000000000000000000000000000000000 u
b0 f
b0 q
b0 t
b10000 g
b10000 r
b1 h
b1 s
b1101111 *"
0'
b1000000000000000011101111 $
b1000000000000000011101111 :
b1000000000000000011101111 ""
bz 7
bz 9
bz W
#30000
b10000000000011000 >
b10000000000011000 Z
b10000000000011000 e
b10000000000011000 p
b10000000000100100 C
b10000000000100100 _
b10000000000100100 c
b10000000001100000000000000000000000000000001000000000000100000000000000000000000000000000000 u
b10000000001100000000000000000000000000000001000000000000100000000000000000000000000000000000 x
b10000000000100100 A
b10000000000100100 L
b10000000000100100 b
b10000000000011000 B
b10000000000011000 J
b10000000000011000 X
b10000000000011000 a
b10000000000010100 6
b10000000000010100 D
b10000000000010100 K
b10000000000010100 N
b10000000000010100 `
b10000000000010100 ~
b10000000001100000000000000000000000000000001000000000000100000000000000000000000000000000000 y
b111111 |
b100000 {
0d
1'
#35000
b1000000000101111111111110000 8
b1000000000101111111111110000 G
b1000000000101111111111110000 R
b1000000000101111111111110000 V
b0 0
b0 H
b0 O
b0 ("
b0 2"
b10000000000011000 C
b10000000000011000 _
b10000000000011000 c
b11111111111111111111111111110000 <
b11111111111111111111111111110000 P
b11111111111111111111111111110000 ]
0-
b10000000000000100 A
b10000000000000100 L
b10000000000000100 b
b11111111111111111111111111110000 F
b11111111111111111111111111110000 M
b11111111111111111111111111110000 U
b11111111111111111111111111110000 \
b11111111111111111111111111110000 }
b1000000000101111111111110000 >
b1000000000101111111111110000 Z
b1000000000101111111111110000 e
b1000000000101111111111110000 p
b11 '"
b11 +"
b11 /"
0)"
b0 .
b0 E
b0 T
b0 %"
b0 ,"
1/
b0 *
b0 =
b0 Y
b0 #"
b0 ."
b1000000000110000000000000000 @
b1000000000110000000000000000 Q
b1000000000110000000000000000 m
b1000000000110000000000000000 k
b1000000000110000000000000000 w
1d
b1111111100000001000000010 S
b1000000000110000000000000000 u
b10 f
b10 q
b10 h
b10 s
b10011 *"
11"
0'
b11111111000000010000000100010011 $
b11111111000000010000000100010011 :
b11111111000000010000000100010011 ""
bz 7
bz 9
bz W
#40000
b1000000000101111111111110000 @
b1000000000101111111111110000 Q
b1000000000101111111111110000 m
b1000000000101111111111110000 k
b1000000000101111111111110000 w
b10000000000011100 C
b10000000000011100 _
b10000000000011100 c
b1000000000101111111111110000 u
b10000000001011111111111100000000000000000001000000000000100000000000000000000000000000000000 x
b10000000000001000 A
b10000000000001000 L
b10000000000001000 b
b10000000000011100 B
b10000000000011100 J
b10000000000011100 X
b10000000000011100 a
b10000000000011000 6
b10000000000011000 D
b10000000000011000 K
b10000000000011000 N
b10000000000011000 `
b10000000000011000 ~
b10000000001011111111111100000000000000000001000000000000100000000000000000000000000000000000 y
b1011111 |
b100000 {
0d
1'
#45000
b0 2
b0 &"
b0 3"
b1100 <
b1100 P
b1100 ]
1i
b10000000000100100 A
b10000000000100100 L
b10000000000100100 b
b1100 F
b1100 M
b1100 U
b1100 \
b1100 }
b0x000000000xxxxxxxxxxxxxxxx00 >
b0x000000000xxxxxxxxxxxxxxxx00 Z
b0x000000000xxxxxxxxxxxxxxxx00 e
b0x000000000xxxxxxxxxxxxxxxx00 p
13
b0 '"
b0 +"
b0 /"
0+
b1 .
b1 E
b1 T
b1 %"
b1 ,"
1&
1-"
bx *
bx =
bx Y
bx #"
bx ."
b10000000000001000 ,
b10000000000001000 ?
b10000000000001000 ^
b10000000000001000 l
b10000000000001000 j
b10000000000001000 v
1d
b10001001001100 S
b100000000010111111111111000000000000000000010000000000001000 t
b1 g
b1 r
b1100 h
b1100 s
b100011 *"
b10 0"
01"
0'
b100010010011000100011 $
b100010010011000100011 :
b100010010011000100011 ""
b10000000000001000 7
b10000000000001000 9
b10000000000001000 W
#50000
b0x000000000xxxxxxxxxxxxxxx000 >
b0x000000000xxxxxxxxxxxxxxx000 Z
b0x000000000xxxxxxxxxxxxxxx000 e
b0x000000000xxxxxxxxxxxxxxx000 p
b10000000000100000 C
b10000000000100000 _
b10000000000100000 c
b10000000000101000 A
b10000000000101000 L
b10000000000101000 b
b10000000000100000 B
b10000000000100000 J
b10000000000100000 X
b10000000000100000 a
b10000000000011100 6
b10000000000011100 D
b10000000000011100 K
b10000000000011100 N
b10000000000011100 `
b10000000000011100 ~
0d
1'
#55000
b0x000000000xxxxxxxxxxxxxx0000 >
b0x000000000xxxxxxxxxxxxxx0000 Z
b0x000000000xxxxxxxxxxxxxx0000 e
b0x000000000xxxxxxxxxxxxxx0000 p
b0 ,
b0 ?
b0 ^
b0 l
b0 j
b0 v
1d
b10000001001001000 S
b0 t
b1000 g
b1000 r
b1000 h
b1000 s
0'
0!
b100000010010010000100011 $
b100000010010010000100011 :
b100000010010010000100011 ""
b0 7
b0 9
b0 W
#60000
b0x000000000xxxxxxxxxxxxxx0x00 >
b0x000000000xxxxxxxxxxxxxx0x00 Z
b0x000000000xxxxxxxxxxxxxx0x00 e
b0x000000000xxxxxxxxxxxxxx0x00 p
b10000000000100100 C
b10000000000100100 _
b10000000000100100 c
b10000000000101100 A
b10000000000101100 L
b10000000000101100 b
b10000000000100100 B
b10000000000100100 J
b10000000000100100 X
b10000000000100100 a
b10000000000100000 6
b10000000000100000 D
b10000000000100000 K
b10000000000100000 N
b10000000000100000 `
b10000000000100000 ~
0d
1'
#65000
b10000 <
b10000 P
b10000 ]
0i
b10000000000110000 A
b10000000000110000 L
b10000000000110000 b
b10000 F
b10000 M
b10000 U
b10000 \
b10000 }
b1000000000101111111111110000 >
b1000000000101111111111110000 Z
b1000000000101111111111110000 e
b1000000000101111111111110000 p
03
b11 '"
b11 +"
b11 /"
1+
b0 .
b0 E
b0 T
b0 %"
b0 ,"
0&
0-"
b0 *
b0 =
b0 Y
b0 #"
b0 ."
1d
b100000001000001000 S
b10000 g
b10000 r
b10011 *"
b0 0"
0'
b1000000010000010000010011 $
b1000000010000010000010011 :
b1000000010000010000010011 ""
bz 7
bz 9
bz W
#70000
b10000000000101000 C
b10000000000101000 _
b10000000000101000 c
b1000000000101111111111110000000000000000000000000000000000000000000000000000000000000000000000000000000000000000000000000000000000000000000000000000000000000000000000000000000000000000000000001000000000101111111111110000 u
b10000000001011111111111100000000000000000000000000000000000000000000000000000000000000000000000000000000000000000000000000000000000000000000000000000000000000000000000000000000000000000000000010000000001011111111111100000000000000000001000000000000100000000000000000000000000000000000 x
b10000000000110100 A
b10000000000110100 L
b10000000000110100 b
b10000000000101000 B
b10000000000101000 J
b10000000000101000 X
b10000000000101000 a
b10000000000100100 6
b10000000000100100 D
b10000000000100100 K
b10000000000100100 N
b10000000000100100 `
b10000000000100100 ~
b10000000001011111111111100000000000000000000000000000000000000000000000000000000000000000000000000000000000000000000000000000000000000000000000000000000000000000000000000000000000000000000000010000000001011111111111100000000000000000001000000000000100000000000000000000000000000000000 y
b100011111 |
b100000 {
0d
1'
#75000
b1000000000010000000000000000 <
b1000000000010000000000000000 P
b1000000000010000000000000000 ]
bx 0
bx H
bx O
bx ("
bx 2"
b1000000000100000000000100100 A
b1000000000100000000000100100 L
b1000000000100000000000100100 b
b1000000000010000000000000000 F
b1000000000010000000000000000 M
b1000000000010000000000000000 U
b1000000000010000000000000000 \
b1000000000010000000000000000 }
b1000000000110000000000000000 >
b1000000000110000000000000000 Z
b1000000000110000000000000000 e
b1000000000110000000000000000 p
bx '"
bx +"
bx /"
b100 .
b100 E
b100 T
b100 %"
b100 ,"
b11 *
b11 =
b11 Y
b11 #"
b11 ."
1d
b100000000001000001111 S
b10000000001011111111111100000000000000000000000000000000000000000000000000000000000000000000000000000000000000000000000000000000000000000000000000000000000000000000000000000000000000000000000010000000001011111111111100000000000000000001000000000000100000000000000000000000000000000000 t
b0 g
b0 r
b1111 h
b1111 s
b110111 *"
0'
b1000000000010000011110110111 $
b1000000000010000011110110111 :
b1000000000010000011110110111 ""
bz 7
bz 9
bz W
#80000
b10000000000101100 C
b10000000000101100 _
b10000000000101100 c
b100000000011000000000000000000000000000000000000000000000000000000000000000000000000000000000000000000000000000000000000000000000000000000000000000000000000000000000000000000000000000000000000000000000000000000000000000000001000000000101111111111110000000000000000000000000000000000000000000000000000000000000000000000000000000000000000000000000000000000000000000000000000000000000000000000000000000000000000000000001000000000101111111111110000 u
b1000000000110000000000000000000000000000000000000000000000000000000000000000000000000000000000000000000000000000000000000000000000000000000000000000000000000000000000000000000000000000000000000000000000000000000000000000000010000000001011111111111100000000000000000000000000000000000000000000000000000000000000000000000000000000000000000000000000000000000000000000000000000000000000000000000000000000000000000000000010000000001011111111111100000000000000000001000000000000100000000000000000000000000000000000 t
b1000000000110000000000000000000000000000000000000000000000000000000000000000000000000000000000000000000000000000000000000000000000000000000000000000000000000000000000000000000000000000000000000000000000000000000000000000000010000000001011111111111100000000000000000000000000000000000000000000000000000000000000000000000000000000000000000000000000000000000000000000000000000000000000000000000000000000000000000000000010000000001011111111111100000000000000000001000000000000100000000000000000000000000000000000 x
b1000000000100000000000101000 A
b1000000000100000000000101000 L
b1000000000100000000000101000 b
b10000000000101100 B
b10000000000101100 J
b10000000000101100 X
b10000000000101100 a
b10000000000101000 6
b10000000000101000 D
b10000000000101000 K
b10000000000101000 N
b10000000000101000 `
b10000000000101000 ~
b1000000000110000000000000000000000000000000000000000000000000000000000000000000000000000000000000000000000000000000000000000000000000000000000000000000000000000000000000000000000000000000000000000000000000000000000000000000010000000001011111111111100000000000000000000000000000000000000000000000000000000000000000000000000000000000000000000000000000000000000000000000000000000000000000000000000000000000000000000000010000000001011111111111100000000000000000001000000000000100000000000000000000000000000000000 y
b111111111 |
b100000 {
0d
1'
#85000
b1000000000110000000000000000 8
b1000000000110000000000000000 G
b1000000000110000000000000000 R
b1000000000110000000000000000 V
b0 0
b0 H
b0 O
b0 ("
b0 2"
b0 <
b0 P
b0 ]
b10000000000101000 A
b10000000000101000 L
b10000000000101000 b
b0 F
b0 M
b0 U
b0 \
b0 }
b1000000000110000000000000000 >
b1000000000110000000000000000 Z
b1000000000110000000000000000 e
b1000000000110000000000000000 p
b11 '"
b11 +"
b11 /"
b0 .
b0 E
b0 T
b0 %"
b0 ,"
b0 *
b0 =
b0 Y
b0 #"
b0 ."
b1000000000110000000000000000 @
b1000000000110000000000000000 Q
b1000000000110000000000000000 m
b1000000000110000000000000000 k
b1000000000110000000000000000 w
1d
b111100001010 S
b1000000000110000000000000000 u
b1111 f
b1111 q
b1010 h
b1010 s
b10011 *"
0'
b1111000010100010011 $
b1111000010100010011 :
b1111000010100010011 ""
bz 7
bz 9
bz W
#90000
b10000000000110000 C
b10000000000110000 _
b10000000000110000 c
b1000000000110000000000000000000000000000000000000000000000000000000000000000000000000000000000000000000000000000000000000000000000000000000000000000000000000000100000000011000000000000000000000000000000000000000000000000000010000000001011111111111100000000000000000000000000000000000000000000000000000000000000000000000000000000000000000000000000000000000000000000000000000000000000000000000000000000000000000000000010000000001011111111111100000000000000000001000000000000100000000000000000000000000000000000 t
b1000000000110000000000000000000000000000000000000000000000000000000000000000000000000000000000000000000000000000000000000000000000000000000000000000000000000000100000000011000000000000000000000000000000000000000000000000000010000000001011111111111100000000000000000000000000000000000000000000000000000000000000000000000000000000000000000000000000000000000000000000000000000000000000000000000000000000000000000000000010000000001011111111111100000000000000000001000000000000100000000000000000000000000000000000 x
b10000000000101100 A
b10000000000101100 L
b10000000000101100 b
b10000000000110000 B
b10000000000110000 J
b10000000000110000 X
b10000000000110000 a
b10000000000101100 6
b10000000000101100 D
b10000000000101100 K
b10000000000101100 N
b10000000000101100 `
b10000000000101100 ~
b1000000000110000000000000000000000000000000000000000000000000000000000000000000000000000000000000000000000000000000000000000000000000000000000000000000000000000100000000011000000000000000000000000000000000000000000000000000010000000001011111111111100000000000000000000000000000000000000000000000000000000000000000000000000000000000000000000000000000000000000000000000000000000000000000000000000000000000000000000000010000000001011111111111100000000000000000001000000000000100000000000000000000000000000000000 y
b101011111 |
b100000 {
0d
1'
#95000
b10000000010000000 C
b10000000010000000 _
b10000000010000000 c
b10000000000110000 >
b10000000000110000 Z
b10000000000110000 e
b10000000000110000 p
b0x0x0x00 <
b0x0x0x00 P
b0x0x0x00 ]
bx 0
bx H
bx O
bx ("
bx 2"
1-
b10000000010000000 A
b10000000010000000 L
b10000000010000000 b
b1010100 F
b1010100 M
b1010100 U
b1010100 \
b1010100 }
bx '"
bx +"
bx /"
1)"
b11 .
b11 E
b11 T
b11 %"
b11 ,"
x/
b10 *
b10 =
b10 Y
b10 #"
b10 ."
b0 k
b0 w
b0 @
b0 Q
b0 m
1d
b10101000000000000001 S
b1000000000110000000000000000000000000000000000000000000000000000000000000000000000000000000000000000000000000000000000000000000000000000000000000000000000000000100000000011000000000000000000000000000000000000000000000000000010000000001011111111111100000000000000000000000000000000000000000000000000000000000000000000000000000000000000000000000000000000000000000000000000000000000000000000000000000000000000000000000010000000001011111111111100000000000000000001000000000000100000000000000000000000000000000000 u
b0 f
b0 q
b0 t
b10100 g
b10100 r
b1 h
b1 s
b1101111 *"
0'
b101010000000000000011101111 $
b101010000000000000011101111 :
b101010000000000000011101111 ""
bz 7
bz 9
bz W
#100000
b10000000010000100 >
b10000000010000100 Z
b10000000010000100 e
b10000000010000100 p
b10000000011010100 C
b10000000011010100 _
b10000000011010100 c
b1000000000110000000000000000000000000000000000000000000000000000000000000000000000000000000000000000000000000000000000000000000000000000000000000000000000000000100000000011000000000000000000000000000000000000000000000000000010000000001011111111111100000000000000000000000000000000000000000000000000000000000000000000000000000000000000000000000000000000000000000000000000000000000000000000000000000000000000000000000010000000001011111111111100000000000000000001000000000011000000000000000000000000000000000000 u
b1000000000110000000000000000000000000000000000000000000000000000000000000000000000000000000000000000000000000000000000000000000000000000000000000000000000000000100000000011000000000000000000000000000000000000000000000000000010000000001011111111111100000000000000000000000000000000000000000000000000000000000000000000000000000000000000000000000000000000000000000000000000000000000000000000000000000000000000000000000010000000001011111111111100000000000000000001000000000011000000000000000000000000000000000000 x
b10000000011010100 A
b10000000011010100 L
b10000000011010100 b
b10000000010000100 B
b10000000010000100 J
b10000000010000100 X
b10000000010000100 a
b10000000010000000 6
b10000000010000000 D
b10000000010000000 K
b10000000010000000 N
b10000000010000000 `
b10000000010000000 ~
b1000000000110000000000000000000000000000000000000000000000000000000000000000000000000000000000000000000000000000000000000000000000000000000000000000000000000000100000000011000000000000000000000000000000000000000000000000000010000000001011111111111100000000000000000000000000000000000000000000000000000000000000000000000000000000000000000000000000000000000000000000000000000000000000000000000000000000000000000000000010000000001011111111111100000000000000000001000000000011000000000000000000000000000000000000 y
b111111 |
b100000 {
0d
1'
#105000
b1000000000101111111111000000 8
b1000000000101111111111000000 G
b1000000000101111111111000000 R
b1000000000101111111111000000 V
b0 0
b0 H
b0 O
b0 ("
b0 2"
b10000000010000100 C
b10000000010000100 _
b10000000010000100 c
b11111111111111111111111111010000 <
b11111111111111111111111111010000 P
b11111111111111111111111111010000 ]
0-
b10000000001010000 A
b10000000001010000 L
b10000000001010000 b
b11111111111111111111111111010000 F
b11111111111111111111111111010000 M
b11111111111111111111111111010000 U
b11111111111111111111111111010000 \
b11111111111111111111111111010000 }
b1000000000101111111111000000 >
b1000000000101111111111000000 Z
b1000000000101111111111000000 e
b1000000000101111111111000000 p
b11 '"
b11 +"
b11 /"
0)"
b0 .
b0 E
b0 T
b0 %"
b0 ,"
1/
b0 *
b0 =
b0 Y
b0 #"
b0 ."
b1000000000101111111111110000 @
b1000000000101111111111110000 Q
b1000000000101111111111110000 m
b1000000000101111111111110000 k
b1000000000101111111111110000 w
1d
b1111110100000001000000010 S
b100000000011000000000000000000000000000000000000000000000000000000000000000000000000000000000000000000000000000000000000000000000000000000000000000000000000000010000000001100000000000000000000000000000000000000000000000000001000000000101111111111110000000000000000000000000000000000000000000000000000000000000000000000000000000000000000000000000000000000000000000000000000000000000000000000000000000000000000000000001000000000101111111111110000 u
b10 f
b10 q
b10000 g
b10000 r
b10 h
b10 s
b10011 *"
11"
0'
b11111101000000010000000100010011 $
b11111101000000010000000100010011 :
b11111101000000010000000100010011 ""
bz 7
bz 9
bz W
#110000
b1000000000101111111111000000 @
b1000000000101111111111000000 Q
b1000000000101111111111000000 m
b1000000000101111111111000000 k
b1000000000101111111111000000 w
b10000000010001000 C
b10000000010001000 _
b10000000010001000 c
b100000000011000000000000000000000000000000000000000000000000000000000000000000000000000000000000000000000000000000000000000000000000000000000000000000000000000010000000001100000000000000000000000000000000000000000000000000001000000000101111111111110000000000000000000000000000000000000000000000000000000000000000000000000000000000000000000000000000000000000000000000000000000000000000000000000000000000000000000000001000000000101111111111000000 u
b1000000000110000000000000000000000000000000000000000000000000000000000000000000000000000000000000000000000000000000000000000000000000000000000000000000000000000100000000011000000000000000000000000000000000000000000000000000010000000001011111111111100000000000000000000000000000000000000000000000000000000000000000000000000000000000000000000000000000000000000000000000000000000000000000000000000000000000000000000000010000000001011111111110000000000000000000001000000000011000000000000000000000000000000000000 x
b10000000001010100 A
b10000000001010100 L
b10000000001010100 b
b10000000010001000 B
b10000000010001000 J
b10000000010001000 X
b10000000010001000 a
b10000000010000100 6
b10000000010000100 D
b10000000010000100 K
b10000000010000100 N
b10000000010000100 `
b10000000010000100 ~
b1000000000110000000000000000000000000000000000000000000000000000000000000000000000000000000000000000000000000000000000000000000000000000000000000000000000000000100000000011000000000000000000000000000000000000000000000000000010000000001011111111111100000000000000000000000000000000000000000000000000000000000000000000000000000000000000000000000000000000000000000000000000000000000000000000000000000000000000000000000010000000001011111111110000000000000000000001000000000011000000000000000000000000000000000000 y
b1011111 |
b100000 {
0d
1'
#115000
b101100 <
b101100 P
b101100 ]
1i
b10000000010110000 A
b10000000010110000 L
b10000000010110000 b
b101100 F
b101100 M
b101100 U
b101100 \
b101100 }
b0x000000000xxxxxxxxxxxxxxx000 >
b0x000000000xxxxxxxxxxxxxxx000 Z
b0x000000000xxxxxxxxxxxxxxx000 e
b0x000000000xxxxxxxxxxxxxxx000 p
13
b0 '"
b0 +"
b0 /"
0+
b1 .
b1 E
b1 T
b1 %"
b1 ,"
1&
1-"
bx *
bx =
bx Y
bx #"
bx ."
b10000000000110000 ,
b10000000000110000 ?
b10000000000110000 ^
b10000000000110000 l
b10000000000110000 j
b10000000000110000 v
1d
b1000010001001001100 S
b10000000001100000000000000000000000000000000000000000000000000000000000000000000000000000000000000000000000000000000000000000000000000000000000000000000000000001000000000110000000000000000000000000000000000000000000000000000100000000010111111111111000000000000000000000000000000000000000000000000000000000000000000000000000000000000000000000000000000000000000000000000000000000000000000000000000000000000000000000000100000000010111111111100000000000000000000010000000000110000 t
b1 g
b1 r
b1100 h
b1100 s
b100011 *"
b10 0"
01"
0'
b10000100010010011000100011 $
b10000100010010011000100011 :
b10000100010010011000100011 ""
b10000000000110000 7
b10000000000110000 9
b10000000000110000 W
#120000
b0x000000000xxxxxxxxxxxxxxxx00 >
b0x000000000xxxxxxxxxxxxxxxx00 Z
b0x000000000xxxxxxxxxxxxxxxx00 e
b0x000000000xxxxxxxxxxxxxxxx00 p
b10000000010001100 C
b10000000010001100 _
b10000000010001100 c
b10000000010110100 A
b10000000010110100 L
b10000000010110100 b
b10000000010001100 B
b10000000010001100 J
b10000000010001100 X
b10000000010001100 a
b10000000010001000 6
b10000000010001000 D
b10000000010001000 K
b10000000010001000 N
b10000000010001000 `
b10000000010001000 ~
0d
1'
