test/dump.vcd
$date
	Mon May  8 19:25:27 2023
$end
$version
	Icarus Verilog
$end
$timescale
	1ps
$end
$scope module top_test $end
$scope module u_top_1 $end
$var wire 1 ! ACKD_n $end
$var wire 1 " ACKI_n $end
$var wire 1 # IACK_n $end
$var wire 32 $ IDT [31:0] $end
$var wire 3 % OINT_n [2:0] $end
$var wire 1 & clk $end
$var wire 1 ' mem_write $end
$var wire 1 ( pc_src $end
$var wire 1 ) rst $end
$var wire 2 * result_src [1:0] $end
$var wire 1 + reg_write $end
$var wire 3 , imm_src [2:0] $end
$var wire 1 - alu_src $end
$var wire 4 . alu_ctrl [3:0] $end
$var wire 1 / ZERO $end
$var wire 1 0 WRITE $end
$var wire 2 1 SIZE [1:0] $end
$var wire 1 2 MREQ $end
$var wire 1 3 IS_lui $end
$var wire 1 4 IS_Utype $end
$var wire 32 5 IAD [31:0] $end
$var wire 32 6 DDT [31:0] $end
$var wire 32 7 DAD [31:0] $end
$scope module datapath $end
$var wire 1 & clk $end
$var wire 32 8 inst [31:0] $end
$var wire 1 ' mem_write $end
$var wire 1 ( pc_src $end
$var wire 1 ) rst $end
$var wire 32 9 u_out [31:0] $end
$var wire 32 : srcB [31:0] $end
$var wire 2 ; result_src [1:0] $end
$var wire 32 < result [31:0] $end
$var wire 1 + reg_write $end
$var wire 32 = rd2 [31:0] $end
$var wire 32 > rd1 [31:0] $end
$var wire 32 ? pcplusImm [31:0] $end
$var wire 32 @ pcplus4 [31:0] $end
$var wire 32 A pc_next [31:0] $end
$var wire 32 B pc [31:0] $end
$var wire 3 C imm_src [2:0] $end
$var wire 32 D immExt [31:0] $end
$var wire 1 - alu_src $end
$var wire 32 E alu_out [31:0] $end
$var wire 4 F alu_ctrl [3:0] $end
$var wire 1 / ZERO $end
$var wire 32 G ReadDDT [31:0] $end
$var wire 1 3 IS_lui $end
$var wire 1 4 IS_Utype $end
$scope module add4 $end
$var wire 32 H b [31:0] $end
$var wire 32 I out [31:0] $end
$var wire 32 J a [31:0] $end
$upscope $end
$scope module addimm $end
$var wire 32 K out [31:0] $end
$var wire 32 L b [31:0] $end
$var wire 32 M a [31:0] $end
$upscope $end
$scope module alu $end
$var wire 4 N mode [3:0] $end
$var wire 1 / ZERO $end
$var wire 32 O B [31:0] $end
$var wire 32 P A [31:0] $end
$var reg 32 Q X [31:0] $end
$upscope $end
$scope module extend $end
$var wire 25 R instr [31:7] $end
$var wire 3 S immsrc [2:0] $end
$var reg 32 T immext [31:0] $end
$upscope $end
$scope module mux_result $end
$var wire 32 U A [31:0] $end
$var wire 32 V C [31:0] $end
$var wire 2 W sel [1:0] $end
$var wire 32 X X [31:0] $end
$var wire 32 Y D [31:0] $end
$var wire 32 Z B [31:0] $end
$upscope $end
$scope module mux_src $end
$var wire 32 [ B [31:0] $end
$var wire 1 - sel $end
$var wire 32 \ X [31:0] $end
$var wire 32 ] A [31:0] $end
$upscope $end
$scope module pcff $end
$var wire 1 & clk $end
$var wire 1 ) rst $end
$var wire 32 ^ d [31:0] $end
$var reg 32 _ q [31:0] $end
$upscope $end
$scope module pcmux $end
$var wire 32 ` A [31:0] $end
$var wire 32 a B [31:0] $end
$var wire 1 ( sel $end
$var wire 32 b X [31:0] $end
$upscope $end
$scope module rf $end
$var wire 1 & clk $end
$var wire 1 c clk_inv $end
$var wire 32 d data_in [31:0] $end
$var wire 5 e rd1_addr [4:0] $end
$var wire 5 f rd2_addr [4:0] $end
$var wire 1 ) reset $end
$var wire 5 g wr_addr [4:0] $end
$var wire 1 + wr_n $end
$var wire 32 h ram_data2_out [31:0] $end
$var wire 32 i ram_data1_out [31:0] $end
$var wire 32 j data2_out [31:0] $end
$var wire 32 k data1_out [31:0] $end
$scope module u_DW_ram_2r_w_s_dff $end
$var wire 1 l a_rst_n $end
$var wire 1 c clk $end
$var wire 1 m cs_n $end
$var wire 32 n data_in [31:0] $end
$var wire 5 o rd1_addr [4:0] $end
$var wire 5 p rd2_addr [4:0] $end
$var wire 1 ) rst_n $end
$var wire 5 q wr_addr [4:0] $end
$var wire 1 + wr_n $end
$var wire 1024 r mem_mux2 [1023:0] $end
$var wire 1024 s mem_mux1 [1023:0] $end
$var wire 32 t data_rd2_out [31:0] $end
$var wire 32 u data_rd1_out [31:0] $end
$var reg 1024 v mem [1023:0] $end
$var reg 1024 w next_mem [1023:0] $end
$scope begin clk_monitor $end
$upscope $end
$scope begin parameter_check $end
$var integer 32 x param_err_flg [31:0] $end
$upscope $end
$scope begin registers $end
$var integer 32 y i [31:0] $end
$var integer 32 z j [31:0] $end
$upscope $end
$upscope $end
$upscope $end
$scope module u_alu $end
$var wire 32 { imm20 [31:0] $end
$var wire 32 | pc [31:0] $end
$var wire 1 3 IS_lui $end
$var wire 1 4 IS_Utype $end
$var reg 32 } result [31:0] $end
$upscope $end
$upscope $end
$scope module dec $end
$var wire 1 / ZERO $end
$var wire 32 ~ inst [31:0] $end
$var wire 1 ( pc_src $end
$var wire 2 !" result_src [1:0] $end
$var wire 1 + reg_write $end
$var wire 1 2 mreq $end
$var wire 1 0 mem_write $end
$var wire 1 "" is_branch $end
$var wire 3 #" imm_src [2:0] $end
$var wire 2 $" byte_size [1:0] $end
$var wire 1 - alu_src $end
$var wire 2 %" alu_op [1:0] $end
$var wire 4 &" alu_ctrl [3:0] $end
$var wire 1 '" Jump $end
$var wire 1 3 IS_lui $end
$var wire 1 4 IS_Utype $end
$scope module asig $end
$var wire 7 (" opcode [6:0] $end
$var reg 1 4 IS_Utype $end
$var reg 1 3 IS_lui $end
$var reg 1 '" Jump $end
$var reg 2 )" alu_op [1:0] $end
$var reg 1 - alu_src $end
$var reg 3 *" imm_src [2:0] $end
$var reg 1 "" is_branch $end
$var reg 1 0 mem_write $end
$var reg 1 2 mreq $end
$var reg 1 +" pc_src $end
$var reg 1 + reg_write $end
$var reg 2 ," result_src [1:0] $end
$upscope $end
$scope module idec $end
$var wire 2 -" alu_op [1:0] $end
$var wire 3 ." funct3 [2:0] $end
$var wire 1 /" funct7b5 $end
$var reg 4 0" alu_ctrl [3:0] $end
$var reg 2 1" byte_size [1:0] $end
$upscope $end
$upscope $end
$upscope $end
$upscope $end
$enddefinitions $end
#0
$dumpvars
bx 1"
bx 0"
x/"
bx ."
bx -"
bx ,"
x+"
bx *"
bx )"
bx ("
x'"
bx &"
bx %"
bx $"
bx #"
x""
bx !"
bx ~
bx }
bx |
bx {
bx z
bx y
b0 x
bx w
bx v
bx u
bx t
bx s
bx r
bx q
bx p
bx o
bx n
0m
1l
bx k
bx j
bx i
bx h
bx g
bx f
bx e
bx d
0c
bx b
bx a
bx `
bx _
bx ^
bx ]
bx \
bx [
bx Z
bx Y
bx X
bx W
bx V
bx U
bx T
bx S
bx R
bx Q
bx P
bx O
bx N
bx M
bx L
bx K
bx J
bx I
b100 H
bx G
bx F
bx E
bx D
bx C
bx B
bx A
bx @
bx ?
bx >
bx =
bx <
bx ;
bx :
bx 9
bx 8
bx 7
bx 6
bx 5
x4
x3
x2
bx 1
x0
x/
bx .
x-
bx ,
x+
bx *
1)
x(
z'
1&
b111 %
bx $
z#
1"
1!
$end
#1000
b0 v
0l
0)
#5000
bx w
1c
0"
0&
#10000
b10000000000000100 @
b10000000000000100 I
b10000000000000100 V
b10000000000000100 `
b10000000000000000 5
b10000000000000000 B
b10000000000000000 J
b10000000000000000 M
b10000000000000000 _
b10000000000000000 |
0c
1&
#11000
1l
1)
#15000
bx v
bx w
1c
0&
bx 6
bx =
bx G
bx Z
bx ]
bx j
#20000
bx @
bx I
bx V
bx `
bx 5
bx B
bx J
bx M
bx _
bx |
0c
1&
#25000
1c
0&
bx 6
bx =
bx G
bx Z
bx ]
bx j
#30000
0c
1&
#35000
1c
0&
bx 6
bx =
bx G
bx Z
bx ]
bx j
#40000
0c
1&
#45000
1c
0&
bx 6
bx =
bx G
bx Z
bx ]
bx j
#50000
0c
1&
#55000
1c
0&
bx 6
bx =
bx G
bx Z
bx ]
bx j
#60000
0c
1&
#65000
1c
0&
bx 6
bx =
bx G
bx Z
bx ]
bx j
#70000
0c
1&
#75000
1c
0&
bx 6
bx =
bx G
bx Z
bx ]
bx j
#80000
0c
1&
#85000
1c
0&
bx 6
bx =
bx G
bx Z
bx ]
bx j
#90000
0c
1&
#95000
1c
0&
bx 6
bx =
bx G
bx Z
bx ]
bx j
#100000
0c
1&
#105000
1c
0&
bx 6
bx =
bx G
bx Z
bx ]
bx j
#110000
0c
1&
#115000
1c
0&
bx 6
bx =
bx G
bx Z
bx ]
bx j
#120000
0c
1&
#125000
1c
0&
bx 6
bx =
bx G
bx Z
bx ]
bx j
#130000
0c
1&
#135000
1c
0&
bx 6
bx =
bx G
bx Z
bx ]
bx j
#140000
0c
1&
#145000
1c
0&
bx 6
bx =
bx G
bx Z
bx ]
bx j
#150000
0c
1&
#155000
1c
0&
bx 6
bx =
bx G
bx Z
bx ]
bx j
#160000
0c
1&
#165000
1c
0&
bx 6
bx =
bx G
bx Z
bx ]
bx j
#170000
0c
1&
#175000
1c
0&
bx 6
bx =
bx G
bx Z
bx ]
bx j
#180000
0c
1&
#185000
1c
0&
bx 6
bx =
bx G
bx Z
bx ]
bx j
#190000
0c
1&
#195000
1c
0&
bx 6
bx =
bx G
bx Z
bx ]
bx j
#200000
0c
1&
#205000
1c
0&
bx 6
bx =
bx G
bx Z
bx ]
bx j
#210000
0c
1&
#215000
1c
0&
bx 6
bx =
bx G
bx Z
bx ]
bx j
#220000
0c
1&
#225000
1c
0&
bx 6
bx =
bx G
bx Z
bx ]
bx j
#230000
0c
1&
#235000
1c
0&
bx 6
bx =
bx G
bx Z
bx ]
bx j
#240000
0c
1&
#245000
1c
0&
bx 6
bx =
bx G
bx Z
bx ]
bx j
#250000
0c
1&
#255000
1c
0&
bx 6
bx =
bx G
bx Z
bx ]
bx j
#260000
0c
1&
#265000
1c
0&
bx 6
bx =
bx G
bx Z
bx ]
bx j
#270000
0c
1&
#275000
1c
0&
bx 6
bx =
bx G
bx Z
bx ]
bx j
#280000
0c
1&
#285000
1c
0&
bx 6
bx =
bx G
bx Z
bx ]
bx j
#290000
0c
1&
#295000
1c
0&
bx 6
bx =
bx G
bx Z
bx ]
bx j
#300000
0c
1&
#305000
1c
0&
bx 6
bx =
bx G
bx Z
bx ]
bx j
#310000
0c
1&
#315000
1c
0&
bx 6
bx =
bx G
bx Z
bx ]
bx j
#320000
0c
1&
#325000
1c
0&
bx 6
bx =
bx G
bx Z
bx ]
bx j
#330000
0c
1&
#335000
1c
0&
bx 6
bx =
bx G
bx Z
bx ]
bx j
#340000
0c
1&
#345000
1c
0&
bx 6
bx =
bx G
bx Z
bx ]
bx j
#350000
0c
1&
#355000
1c
0&
bx 6
bx =
bx G
bx Z
bx ]
bx j
#360000
0c
1&
#365000
1c
0&
bx 6
bx =
bx G
bx Z
bx ]
bx j
#370000
0c
1&
#375000
1c
0&
bx 6
bx =
bx G
bx Z
bx ]
bx j
#380000
0c
1&
#385000
1c
0&
bx 6
bx =
bx G
bx Z
bx ]
bx j
#390000
0c
1&
#395000
1c
0&
bx 6
bx =
bx G
bx Z
bx ]
bx j
#400000
0c
1&
#405000
1c
0&
bx 6
bx =
bx G
bx Z
bx ]
bx j
#410000
0c
1&
#415000
1c
0&
bx 6
bx =
bx G
bx Z
bx ]
bx j
#420000
0c
1&
#425000
1c
0&
bx 6
bx =
bx G
bx Z
bx ]
bx j
#430000
0c
1&
#435000
1c
0&
bx 6
bx =
bx G
bx Z
bx ]
bx j
#440000
0c
1&
#445000
1c
0&
bx 6
bx =
bx G
bx Z
bx ]
bx j
#450000
0c
1&
#455000
1c
0&
bx 6
bx =
bx G
bx Z
bx ]
bx j
#460000
0c
1&
#465000
1c
0&
bx 6
bx =
bx G
bx Z
bx ]
bx j
#470000
0c
1&
#475000
1c
0&
bx 6
bx =
bx G
bx Z
bx ]
bx j
#480000
0c
1&
#485000
1c
0&
bx 6
bx =
bx G
bx Z
bx ]
bx j
#490000
0c
1&
#495000
1c
0&
bx 6
bx =
bx G
bx Z
bx ]
bx j
#500000
0c
1&
#505000
1c
0&
bx 6
bx =
bx G
bx Z
bx ]
bx j
#510000
0c
1&
#515000
1c
0&
bx 6
bx =
bx G
bx Z
bx ]
bx j
#520000
0c
1&
#525000
1c
0&
bx 6
bx =
bx G
bx Z
bx ]
bx j
#530000
0c
1&
#535000
1c
0&
bx 6
bx =
bx G
bx Z
bx ]
bx j
#540000
0c
1&
#545000
1c
0&
bx 6
bx =
bx G
bx Z
bx ]
bx j
#550000
0c
1&
#555000
1c
0&
bx 6
bx =
bx G
bx Z
bx ]
bx j
#560000
0c
1&
#565000
1c
0&
bx 6
bx =
bx G
bx Z
bx ]
bx j
#570000
0c
1&
#575000
1c
0&
bx 6
bx =
bx G
bx Z
bx ]
bx j
#580000
0c
1&
#585000
1c
0&
bx 6
bx =
bx G
bx Z
bx ]
bx j
#590000
0c
1&
#595000
1c
0&
bx 6
bx =
bx G
bx Z
bx ]
bx j
#600000
0c
1&
#605000
1c
0&
bx 6
bx =
bx G
bx Z
bx ]
bx j
#610000
0c
1&
#615000
1c
0&
bx 6
bx =
bx G
bx Z
bx ]
bx j
#620000
0c
1&
#625000
1c
0&
bx 6
bx =
bx G
bx Z
bx ]
bx j
#630000
0c
1&
#635000
1c
0&
bx 6
bx =
bx G
bx Z
bx ]
bx j
#640000
0c
1&
#645000
1c
0&
bx 6
bx =
bx G
bx Z
bx ]
bx j
#650000
0c
1&
#655000
1c
0&
bx 6
bx =
bx G
bx Z
bx ]
bx j
#660000
0c
1&
#665000
1c
0&
bx 6
bx =
bx G
bx Z
bx ]
bx j
#670000
0c
1&
#675000
1c
0&
bx 6
bx =
bx G
bx Z
bx ]
bx j
#680000
0c
1&
#685000
1c
0&
bx 6
bx =
bx G
bx Z
bx ]
bx j
#690000
0c
1&
#695000
1c
0&
bx 6
bx =
bx G
bx Z
bx ]
bx j
#700000
0c
1&
#705000
1c
0&
bx 6
bx =
bx G
bx Z
bx ]
bx j
#710000
0c
1&
#715000
1c
0&
bx 6
bx =
bx G
bx Z
bx ]
bx j
#720000
0c
1&
#725000
1c
0&
bx 6
bx =
bx G
bx Z
bx ]
bx j
#730000
0c
1&
#735000
1c
0&
bx 6
bx =
bx G
bx Z
bx ]
bx j
#740000
0c
1&
#745000
1c
0&
bx 6
bx =
bx G
bx Z
bx ]
bx j
#750000
0c
1&
#755000
1c
0&
bx 6
bx =
bx G
bx Z
bx ]
bx j
#760000
0c
1&
#765000
1c
0&
bx 6
bx =
bx G
bx Z
bx ]
bx j
#770000
0c
1&
#775000
1c
0&
bx 6
bx =
bx G
bx Z
bx ]
bx j
#780000
0c
1&
#785000
1c
0&
bx 6
bx =
bx G
bx Z
bx ]
bx j
#790000
0c
1&
#795000
1c
0&
bx 6
bx =
bx G
bx Z
bx ]
bx j
#800000
0c
1&
#805000
1c
0&
bx 6
bx =
bx G
bx Z
bx ]
bx j
#810000
0c
1&
#815000
1c
0&
bx 6
bx =
bx G
bx Z
bx ]
bx j
#820000
0c
1&
#825000
1c
0&
bx 6
bx =
bx G
bx Z
bx ]
bx j
#830000
0c
1&
#835000
1c
0&
bx 6
bx =
bx G
bx Z
bx ]
bx j
#840000
0c
1&
#845000
1c
0&
bx 6
bx =
bx G
bx Z
bx ]
bx j
#850000
0c
1&
#855000
1c
0&
bx 6
bx =
bx G
bx Z
bx ]
bx j
#860000
0c
1&
#865000
1c
0&
bx 6
bx =
bx G
bx Z
bx ]
bx j
#870000
0c
1&
#875000
1c
0&
bx 6
bx =
bx G
bx Z
bx ]
bx j
#880000
0c
1&
#885000
1c
0&
bx 6
bx =
bx G
bx Z
bx ]
bx j
#890000
0c
1&
#895000
1c
0&
bx 6
bx =
bx G
bx Z
bx ]
bx j
#900000
0c
1&
#905000
1c
0&
bx 6
bx =
bx G
bx Z
bx ]
bx j
#910000
0c
1&
#915000
1c
0&
bx 6
bx =
bx G
bx Z
bx ]
bx j
#920000
0c
1&
#925000
1c
0&
bx 6
bx =
bx G
bx Z
bx ]
bx j
#930000
0c
1&
#935000
1c
0&
bx 6
bx =
bx G
bx Z
bx ]
bx j
#940000
0c
1&
#945000
1c
0&
bx 6
bx =
bx G
bx Z
bx ]
bx j
#950000
0c
1&
#955000
1c
0&
bx 6
bx =
bx G
bx Z
bx ]
bx j
#960000
0c
1&
#965000
1c
0&
bx 6
bx =
bx G
bx Z
bx ]
bx j
#970000
0c
1&
#975000
1c
0&
bx 6
bx =
bx G
bx Z
bx ]
bx j
#980000
0c
1&
#985000
1c
0&
bx 6
bx =
bx G
bx Z
bx ]
bx j
#990000
0c
1&
#995000
1c
0&
bx 6
bx =
bx G
bx Z
bx ]
bx j
#1000000
0c
1&
#1005000
1c
0&
bx 6
bx =
bx G
bx Z
bx ]
bx j
#1010000
0c
1&
#1015000
1c
0&
bx 6
bx =
bx G
bx Z
bx ]
bx j
#1020000
0c
1&
#1025000
1c
0&
bx 6
bx =
bx G
bx Z
bx ]
bx j
#1030000
0c
1&
#1035000
1c
0&
bx 6
bx =
bx G
bx Z
bx ]
bx j
#1040000
0c
1&
#1045000
1c
0&
bx 6
bx =
bx G
bx Z
bx ]
bx j
#1050000
0c
1&
#1055000
1c
0&
bx 6
bx =
bx G
bx Z
bx ]
bx j
#1060000
0c
1&
#1065000
1c
0&
bx 6
bx =
bx G
bx Z
bx ]
bx j
#1070000
0c
1&
#1075000
1c
0&
bx 6
bx =
bx G
bx Z
bx ]
bx j
#1080000
0c
1&
#1085000
1c
0&
bx 6
bx =
bx G
bx Z
bx ]
bx j
#1090000
0c
1&
#1095000
1c
0&
bx 6
bx =
bx G
bx Z
bx ]
bx j
#1100000
0c
1&
#1105000
1c
0&
bx 6
bx =
bx G
bx Z
bx ]
bx j
#1110000
0c
1&
#1115000
1c
0&
bx 6
bx =
bx G
bx Z
bx ]
bx j
#1120000
0c
1&
#1125000
1c
0&
bx 6
bx =
bx G
bx Z
bx ]
bx j
#1130000
0c
1&
#1135000
1c
0&
bx 6
bx =
bx G
bx Z
bx ]
bx j
#1140000
0c
1&
#1145000
1c
0&
bx 6
bx =
bx G
bx Z
bx ]
bx j
#1150000
0c
1&
#1155000
1c
0&
bx 6
bx =
bx G
bx Z
bx ]
bx j
#1160000
0c
1&
#1165000
1c
0&
bx 6
bx =
bx G
bx Z
bx ]
bx j
#1170000
0c
1&
#1175000
1c
0&
bx 6
bx =
bx G
bx Z
bx ]
bx j
#1180000
0c
1&
#1185000
1c
0&
bx 6
bx =
bx G
bx Z
bx ]
bx j
#1190000
0c
1&
#1195000
1c
0&
bx 6
bx =
bx G
bx Z
bx ]
bx j
#1200000
0c
1&
#1205000
1c
0&
bx 6
bx =
bx G
bx Z
bx ]
bx j
#1210000
0c
1&
#1215000
1c
0&
bx 6
bx =
bx G
bx Z
bx ]
bx j
#1220000
0c
1&
#1225000
1c
0&
bx 6
bx =
bx G
bx Z
bx ]
bx j
#1230000
0c
1&
#1235000
1c
0&
bx 6
bx =
bx G
bx Z
bx ]
bx j
#1240000
0c
1&
#1245000
1c
0&
bx 6
bx =
bx G
bx Z
bx ]
bx j
#1250000
0c
1&
#1255000
1c
0&
bx 6
bx =
bx G
bx Z
bx ]
bx j
#1260000
0c
1&
#1265000
1c
0&
bx 6
bx =
bx G
bx Z
bx ]
bx j
#1270000
0c
1&
#1275000
1c
0&
bx 6
bx =
bx G
bx Z
bx ]
bx j
#1280000
0c
1&
#1285000
1c
0&
bx 6
bx =
bx G
bx Z
bx ]
bx j
#1290000
0c
1&
#1295000
1c
0&
bx 6
bx =
bx G
bx Z
bx ]
bx j
#1300000
0c
1&
#1305000
1c
0&
bx 6
bx =
bx G
bx Z
bx ]
bx j
#1310000
0c
1&
#1315000
1c
0&
bx 6
bx =
bx G
bx Z
bx ]
bx j
#1320000
0c
1&
#1325000
1c
0&
bx 6
bx =
bx G
bx Z
bx ]
bx j
#1330000
0c
1&
#1335000
1c
0&
bx 6
bx =
bx G
bx Z
bx ]
bx j
#1340000
0c
1&
#1345000
1c
0&
bx 6
bx =
bx G
bx Z
bx ]
bx j
#1350000
0c
1&
#1355000
1c
0&
bx 6
bx =
bx G
bx Z
bx ]
bx j
#1360000
0c
1&
#1365000
1c
0&
bx 6
bx =
bx G
bx Z
bx ]
bx j
#1370000
0c
1&
#1375000
1c
0&
bx 6
bx =
bx G
bx Z
bx ]
bx j
#1380000
0c
1&
#1385000
1c
0&
bx 6
bx =
bx G
bx Z
bx ]
bx j
#1390000
0c
1&
#1395000
1c
0&
bx 6
bx =
bx G
bx Z
bx ]
bx j
#1400000
0c
1&
#1405000
1c
0&
bx 6
bx =
bx G
bx Z
bx ]
bx j
#1410000
0c
1&
#1415000
1c
0&
bx 6
bx =
bx G
bx Z
bx ]
bx j
#1420000
0c
1&
#1425000
1c
0&
bx 6
bx =
bx G
bx Z
bx ]
bx j
#1430000
0c
1&
#1435000
1c
0&
bx 6
bx =
bx G
bx Z
bx ]
bx j
#1440000
0c
1&
#1445000
1c
0&
bx 6
bx =
bx G
bx Z
bx ]
bx j
#1450000
0c
1&
#1455000
1c
0&
bx 6
bx =
bx G
bx Z
bx ]
bx j
#1460000
0c
1&
#1465000
1c
0&
bx 6
bx =
bx G
bx Z
bx ]
bx j
#1470000
0c
1&
#1475000
1c
0&
bx 6
bx =
bx G
bx Z
bx ]
bx j
#1480000
0c
1&
#1485000
1c
0&
bx 6
bx =
bx G
bx Z
bx ]
bx j
#1490000
0c
1&
#1495000
1c
0&
bx 6
bx =
bx G
bx Z
bx ]
bx j
#1500000
0c
1&
#1505000
1c
0&
bx 6
bx =
bx G
bx Z
bx ]
bx j
#1510000
0c
1&
#1515000
1c
0&
bx 6
bx =
bx G
bx Z
bx ]
bx j
#1520000
0c
1&
#1525000
1c
0&
bx 6
bx =
bx G
bx Z
bx ]
bx j
#1530000
0c
1&
#1535000
1c
0&
bx 6
bx =
bx G
bx Z
bx ]
bx j
#1540000
0c
1&
#1545000
1c
0&
bx 6
bx =
bx G
bx Z
bx ]
bx j
#1550000
0c
1&
#1555000
1c
0&
bx 6
bx =
bx G
bx Z
bx ]
bx j
#1560000
0c
1&
#1565000
1c
0&
bx 6
bx =
bx G
bx Z
bx ]
bx j
#1570000
0c
1&
#1575000
1c
0&
bx 6
bx =
bx G
bx Z
bx ]
bx j
#1580000
0c
1&
#1585000
1c
0&
bx 6
bx =
bx G
bx Z
bx ]
bx j
#1590000
0c
1&
#1595000
1c
0&
bx 6
bx =
bx G
bx Z
bx ]
bx j
#1600000
0c
1&
#1605000
1c
0&
bx 6
bx =
bx G
bx Z
bx ]
bx j
#1610000
0c
1&
#1615000
1c
0&
bx 6
bx =
bx G
bx Z
bx ]
bx j
#1620000
0c
1&
#1625000
1c
0&
bx 6
bx =
bx G
bx Z
bx ]
bx j
#1630000
0c
1&
#1635000
1c
0&
bx 6
bx =
bx G
bx Z
bx ]
bx j
#1640000
0c
1&
#1645000
1c
0&
bx 6
bx =
bx G
bx Z
bx ]
bx j
#1650000
0c
1&
#1655000
1c
0&
bx 6
bx =
bx G
bx Z
bx ]
bx j
#1660000
0c
1&
#1665000
1c
0&
bx 6
bx =
bx G
bx Z
bx ]
bx j
#1670000
0c
1&
#1675000
1c
0&
bx 6
bx =
bx G
bx Z
bx ]
bx j
#1680000
0c
1&
#1685000
1c
0&
bx 6
bx =
bx G
bx Z
bx ]
bx j
#1690000
0c
1&
#1695000
1c
0&
bx 6
bx =
bx G
bx Z
bx ]
bx j
#1700000
0c
1&
#1705000
1c
0&
bx 6
bx =
bx G
bx Z
bx ]
bx j
#1710000
0c
1&
#1715000
1c
0&
bx 6
bx =
bx G
bx Z
bx ]
bx j
#1720000
0c
1&
#1725000
1c
0&
bx 6
bx =
bx G
bx Z
bx ]
bx j
#1730000
0c
1&
#1735000
1c
0&
bx 6
bx =
bx G
bx Z
bx ]
bx j
#1740000
0c
1&
#1745000
1c
0&
bx 6
bx =
bx G
bx Z
bx ]
bx j
#1750000
0c
1&
#1755000
1c
0&
bx 6
bx =
bx G
bx Z
bx ]
bx j
#1760000
0c
1&
#1765000
1c
0&
bx 6
bx =
bx G
bx Z
bx ]
bx j
#1770000
0c
1&
#1775000
1c
0&
bx 6
bx =
bx G
bx Z
bx ]
bx j
#1780000
0c
1&
#1785000
1c
0&
bx 6
bx =
bx G
bx Z
bx ]
bx j
#1790000
0c
1&
#1795000
1c
0&
bx 6
bx =
bx G
bx Z
bx ]
bx j
#1800000
0c
1&
#1805000
1c
0&
bx 6
bx =
bx G
bx Z
bx ]
bx j
#1810000
0c
1&
#1815000
1c
0&
bx 6
bx =
bx G
bx Z
bx ]
bx j
#1820000
0c
1&
#1825000
1c
0&
bx 6
bx =
bx G
bx Z
bx ]
bx j
#1830000
0c
1&
#1835000
1c
0&
bx 6
bx =
bx G
bx Z
bx ]
bx j
#1840000
0c
1&
#1845000
1c
0&
bx 6
bx =
bx G
bx Z
bx ]
bx j
#1850000
0c
1&
#1855000
1c
0&
bx 6
bx =
bx G
bx Z
bx ]
bx j
#1860000
0c
1&
#1865000
1c
0&
bx 6
bx =
bx G
bx Z
bx ]
bx j
#1870000
0c
1&
#1875000
1c
0&
bx 6
bx =
bx G
bx Z
bx ]
bx j
#1880000
0c
1&
#1885000
1c
0&
bx 6
bx =
bx G
bx Z
bx ]
bx j
#1890000
0c
1&
#1895000
1c
0&
bx 6
bx =
bx G
bx Z
bx ]
bx j
#1900000
0c
1&
#1905000
1c
0&
bx 6
bx =
bx G
bx Z
bx ]
bx j
#1910000
0c
1&
#1915000
1c
0&
bx 6
bx =
bx G
bx Z
bx ]
bx j
#1920000
0c
1&
#1925000
1c
0&
bx 6
bx =
bx G
bx Z
bx ]
bx j
#1930000
0c
1&
#1935000
1c
0&
bx 6
bx =
bx G
bx Z
bx ]
bx j
#1940000
0c
1&
#1945000
1c
0&
bx 6
bx =
bx G
bx Z
bx ]
bx j
#1950000
0c
1&
#1955000
1c
0&
bx 6
bx =
bx G
bx Z
bx ]
bx j
#1960000
0c
1&
#1965000
1c
0&
bx 6
bx =
bx G
bx Z
bx ]
bx j
#1970000
0c
1&
#1975000
1c
0&
bx 6
bx =
bx G
bx Z
bx ]
bx j
#1980000
0c
1&
#1985000
1c
0&
bx 6
bx =
bx G
bx Z
bx ]
bx j
#1990000
0c
1&
#1995000
1c
0&
bx 6
bx =
bx G
bx Z
bx ]
bx j
#2000000
0c
1&
#2005000
1c
0&
bx 6
bx =
bx G
bx Z
bx ]
bx j
#2010000
0c
1&
#2015000
1c
0&
bx 6
bx =
bx G
bx Z
bx ]
bx j
#2020000
0c
1&
#2025000
1c
0&
bx 6
bx =
bx G
bx Z
bx ]
bx j
#2030000
0c
1&
#2035000
1c
0&
bx 6
bx =
bx G
bx Z
bx ]
bx j
#2040000
0c
1&
#2045000
1c
0&
bx 6
bx =
bx G
bx Z
bx ]
bx j
#2050000
0c
1&
#2055000
1c
0&
bx 6
bx =
bx G
bx Z
bx ]
bx j
#2060000
0c
1&
#2065000
1c
0&
bx 6
bx =
bx G
bx Z
bx ]
bx j
#2070000
0c
1&
#2075000
1c
0&
bx 6
bx =
bx G
bx Z
bx ]
bx j
#2080000
0c
1&
#2085000
1c
0&
bx 6
bx =
bx G
bx Z
bx ]
bx j
#2090000
0c
1&
#2095000
1c
0&
bx 6
bx =
bx G
bx Z
bx ]
bx j
#2100000
0c
1&
#2105000
1c
0&
bx 6
bx =
bx G
bx Z
bx ]
bx j
#2110000
0c
1&
#2115000
1c
0&
bx 6
bx =
bx G
bx Z
bx ]
bx j
#2120000
0c
1&
#2125000
1c
0&
bx 6
bx =
bx G
bx Z
bx ]
bx j
#2130000
0c
1&
#2135000
1c
0&
bx 6
bx =
bx G
bx Z
bx ]
bx j
#2140000
0c
1&
#2145000
1c
0&
bx 6
bx =
bx G
bx Z
bx ]
bx j
#2150000
0c
1&
#2155000
1c
0&
bx 6
bx =
bx G
bx Z
bx ]
bx j
#2160000
0c
1&
#2165000
1c
0&
bx 6
bx =
bx G
bx Z
bx ]
bx j
#2170000
0c
1&
#2175000
1c
0&
bx 6
bx =
bx G
bx Z
bx ]
bx j
#2180000
0c
1&
#2185000
1c
0&
bx 6
bx =
bx G
bx Z
bx ]
bx j
#2190000
0c
1&
#2195000
1c
0&
bx 6
bx =
bx G
bx Z
bx ]
bx j
#2200000
0c
1&
#2205000
1c
0&
bx 6
bx =
bx G
bx Z
bx ]
bx j
#2210000
0c
1&
#2215000
1c
0&
bx 6
bx =
bx G
bx Z
bx ]
bx j
#2220000
0c
1&
#2225000
1c
0&
bx 6
bx =
bx G
bx Z
bx ]
bx j
#2230000
0c
1&
#2235000
1c
0&
bx 6
bx =
bx G
bx Z
bx ]
bx j
#2240000
0c
1&
#2245000
1c
0&
bx 6
bx =
bx G
bx Z
bx ]
bx j
#2250000
0c
1&
#2255000
1c
0&
bx 6
bx =
bx G
bx Z
bx ]
bx j
#2260000
0c
1&
#2265000
1c
0&
bx 6
bx =
bx G
bx Z
bx ]
bx j
#2270000
0c
1&
#2275000
1c
0&
bx 6
bx =
bx G
bx Z
bx ]
bx j
#2280000
0c
1&
#2285000
1c
0&
bx 6
bx =
bx G
bx Z
bx ]
bx j
#2290000
0c
1&
#2295000
1c
0&
bx 6
bx =
bx G
bx Z
bx ]
bx j
#2300000
0c
1&
#2305000
1c
0&
bx 6
bx =
bx G
bx Z
bx ]
bx j
#2310000
0c
1&
#2315000
1c
0&
bx 6
bx =
bx G
bx Z
bx ]
bx j
#2320000
0c
1&
#2325000
1c
0&
bx 6
bx =
bx G
bx Z
bx ]
bx j
#2330000
0c
1&
